{  
   "107":{  
      "id":"107",
      "name":"Lactation Oat Bars: Cherry Lemon",
      "url":"https:\/\/test-t6dnbai-q7lkii7t52xiq.us.magentosite.cloud\/cherry-lemon-lactation-bar",
      "image":"https:\/\/test-t6dnbai-q7lkii7t52xiq.us.magentosite.cloud\/media\/catalog\/product\/cache\/afad95d7734d2fa6d0a8ba78597182b7\/h\/b\/hb-hm_bf-lemon-cherry-bar_fop-min.png",
      "allergens":false,
      "product_line":"Breastfeeding Support Bars"
   },
   "108":{  
      "id":"108",
      "name":"Lactation Oat Bars: Peach, Coconut & Cashew",
      "url":"https:\/\/test-t6dnbai-q7lkii7t52xiq.us.magentosite.cloud\/lactation-oat-bars-peach-coconut-cashew",
      "image":"https:\/\/test-t6dnbai-q7lkii7t52xiq.us.magentosite.cloud\/media\/catalog\/product\/cache\/afad95d7734d2fa6d0a8ba78597182b7\/b\/h\/bhbars-peachcocofop.png",
      "allergens":false,
      "product_line":"Breastfeeding Support Bars"
   },
   "110":{  
      "id":"110",
      "name":"Probiotic Baby Cereal, Oatmeal",
      "url":"https:\/\/test-t6dnbai-q7lkii7t52xiq.us.magentosite.cloud\/oatmeal",
      "image":"https:\/\/test-t6dnbai-q7lkii7t52xiq.us.magentosite.cloud\/media\/catalog\/product\/cache\/afad95d7734d2fa6d0a8ba78597182b7\/h\/b\/hb-store-cereal_oatmealfop.png",
      "allergens":false,
      "product_line":false
   },
   "111":{  
      "id":"111",
      "name":"Probiotic Baby Cereal, Multi-Grain",
      "url":"https:\/\/test-t6dnbai-q7lkii7t52xiq.us.magentosite.cloud\/multi-grain",
      "image":"https:\/\/test-t6dnbai-q7lkii7t52xiq.us.magentosite.cloud\/media\/catalog\/product\/cache\/afad95d7734d2fa6d0a8ba78597182b7\/h\/b\/hb-store-cereal_multigrainfop.png",
      "allergens":false,
      "product_line":false
   },
   "112":{  
      "id":"112",
      "name":"Apples, Kale & Avocados",
      "url":"https:\/\/test-t6dnbai-q7lkii7t52xiq.us.magentosite.cloud\/apples-kale-avocados",
      "image":"https:\/\/test-t6dnbai-q7lkii7t52xiq.us.magentosite.cloud\/media\/catalog\/product\/cache\/afad95d7734d2fa6d0a8ba78597182b7\/h\/b\/hb-store-clearlycrafted_akafop_1.png",
      "allergens":false,
      "product_line":"Clearly Crafted Pouches"
   },
   "113":{  
      "id":"113",
      "name":"Apples, Guavas & Beets",
      "url":"https:\/\/test-t6dnbai-q7lkii7t52xiq.us.magentosite.cloud\/apples-guava-beets-puree",
      "image":"https:\/\/test-t6dnbai-q7lkii7t52xiq.us.magentosite.cloud\/media\/catalog\/product\/cache\/afad95d7734d2fa6d0a8ba78597182b7\/h\/b\/hb-store-clearlycrafted_agbfop-min.png",
      "allergens":false,
      "product_line":"Clearly Crafted Pouches"
   },
   "114":{  
      "id":"114",
      "name":"Apples, Pumpkin & Carrots",
      "url":"https:\/\/test-t6dnbai-q7lkii7t52xiq.us.magentosite.cloud\/apples-pumpkin-carrots",
      "image":"https:\/\/test-t6dnbai-q7lkii7t52xiq.us.magentosite.cloud\/media\/catalog\/product\/cache\/afad95d7734d2fa6d0a8ba78597182b7\/h\/b\/hb-store-clearlycrafted_apcfop.png",
      "allergens":false,
      "product_line":"Clearly Crafted Pouches"
   },
   "115":{  
      "id":"115",
      "name":"Pears, Squash & Blackberries",
      "url":"https:\/\/test-t6dnbai-q7lkii7t52xiq.us.magentosite.cloud\/pears-squash-blackberries",
      "image":"https:\/\/test-t6dnbai-q7lkii7t52xiq.us.magentosite.cloud\/media\/catalog\/product\/cache\/afad95d7734d2fa6d0a8ba78597182b7\/h\/b\/hb-store-clearlycrafted_psbfop.png",
      "allergens":false,
      "product_line":"Clearly Crafted Pouches"
   },
   "116":{  
      "id":"116",
      "name":"Apples, Blueberries & Oats",
      "url":"https:\/\/test-t6dnbai-q7lkii7t52xiq.us.magentosite.cloud\/apples-blueberries-oats",
      "image":"https:\/\/test-t6dnbai-q7lkii7t52xiq.us.magentosite.cloud\/media\/catalog\/product\/cache\/afad95d7734d2fa6d0a8ba78597182b7\/h\/b\/hb-store-clearlycrafted_abofop.png",
      "allergens":false,
      "product_line":"Clearly Crafted Pouches"
   },
   "117":{  
      "id":"117",
      "name":"Pears, Kale & Spinach",
      "url":"https:\/\/test-t6dnbai-q7lkii7t52xiq.us.magentosite.cloud\/pears-kale-spinach",
      "image":"https:\/\/test-t6dnbai-q7lkii7t52xiq.us.magentosite.cloud\/media\/catalog\/product\/cache\/afad95d7734d2fa6d0a8ba78597182b7\/h\/b\/hb-store-clearlycrafted_pksfop.png",
      "allergens":false,
      "product_line":"Clearly Crafted Pouches"
   },
   "118":{  
      "id":"118",
      "name":"Bananas, Sweet Potatoes & Papayas",
      "url":"https:\/\/test-t6dnbai-q7lkii7t52xiq.us.magentosite.cloud\/bananas-sweet-potatoes-papayas",
      "image":"https:\/\/test-t6dnbai-q7lkii7t52xiq.us.magentosite.cloud\/media\/catalog\/product\/cache\/afad95d7734d2fa6d0a8ba78597182b7\/h\/b\/hb-store-clearlycrafted_bsppfop.png",
      "allergens":false,
      "product_line":"Clearly Crafted Pouches"
   },
   "119":{  
      "id":"119",
      "name":"Bananas, Raspberries & Oats",
      "url":"https:\/\/test-t6dnbai-q7lkii7t52xiq.us.magentosite.cloud\/bananas-raspberries-oats",
      "image":"https:\/\/test-t6dnbai-q7lkii7t52xiq.us.magentosite.cloud\/media\/catalog\/product\/cache\/afad95d7734d2fa6d0a8ba78597182b7\/h\/b\/hb-store-clearlycrafted_brofop.png",
      "allergens":false,
      "product_line":"Clearly Crafted Pouches"
   },
   "120":{  
      "id":"120",
      "name":"Pears, Zucchini & Peas",
      "url":"https:\/\/test-t6dnbai-q7lkii7t52xiq.us.magentosite.cloud\/pears-zucchini-peas",
      "image":"https:\/\/test-t6dnbai-q7lkii7t52xiq.us.magentosite.cloud\/media\/catalog\/product\/cache\/afad95d7734d2fa6d0a8ba78597182b7\/h\/b\/hb-store-clearlycrafted_pzpfop.png",
      "allergens":false,
      "product_line":"Clearly Crafted Pouches"
   },
   "121":{  
      "id":"121",
      "name":"Sweet Potatoes, Mangos & Carrots",
      "url":"https:\/\/test-t6dnbai-q7lkii7t52xiq.us.magentosite.cloud\/sweet-potatoes-mangos-carrots",
      "image":"https:\/\/test-t6dnbai-q7lkii7t52xiq.us.magentosite.cloud\/static\/version1533705851\/frontend\/Madwell\/HappyFamily\/en_US\/Magento_Catalog\/images\/product\/placeholder\/image.jpg",
      "allergens":false,
      "product_line":"Clearly Crafted Pouches"
   },
   "122":{  
      "id":"122",
      "name":"Black Bean, Beets & Bananas",
      "url":"https:\/\/test-t6dnbai-q7lkii7t52xiq.us.magentosite.cloud\/black-bean-beets-bananas",
      "image":"https:\/\/test-t6dnbai-q7lkii7t52xiq.us.magentosite.cloud\/static\/version1533705851\/frontend\/Madwell\/HappyFamily\/en_US\/Magento_Catalog\/images\/product\/placeholder\/image.jpg",
      "allergens":false,
      "product_line":"Clearly Crafted Pouches"
   },
   "123":{  
      "id":"123",
      "name":"Mangos",
      "url":"https:\/\/test-t6dnbai-q7lkii7t52xiq.us.magentosite.cloud\/mangos",
      "image":"https:\/\/test-t6dnbai-q7lkii7t52xiq.us.magentosite.cloud\/media\/catalog\/product\/cache\/afad95d7734d2fa6d0a8ba78597182b7\/h\/b\/hb-store-clearlycrafted_mangosfop.png",
      "allergens":false,
      "product_line":"Clearly Crafted Pouches"
   },
   "124":{  
      "id":"124",
      "name":"Prunes",
      "url":"https:\/\/test-t6dnbai-q7lkii7t52xiq.us.magentosite.cloud\/prunes",
      "image":"https:\/\/test-t6dnbai-q7lkii7t52xiq.us.magentosite.cloud\/media\/catalog\/product\/cache\/afad95d7734d2fa6d0a8ba78597182b7\/h\/b\/hb-store-clearlycrafted_prunesfop.png",
      "allergens":false,
      "product_line":"Clearly Crafted Pouches"
   },
   "125":{  
      "id":"125",
      "name":"Green Beans, Pears & Spinach",
      "url":"https:\/\/test-t6dnbai-q7lkii7t52xiq.us.magentosite.cloud\/green-beans-pears-spinach",
      "image":"https:\/\/test-t6dnbai-q7lkii7t52xiq.us.magentosite.cloud\/media\/catalog\/product\/cache\/afad95d7734d2fa6d0a8ba78597182b7\/h\/b\/hb-store-clearlycrafted_gbpsfop.png",
      "allergens":false,
      "product_line":"Clearly Crafted Pouches"
   },
   "126":{  
      "id":"126",
      "name":"Carrots, Strawberries & Chickpeas",
      "url":"https:\/\/test-t6dnbai-q7lkii7t52xiq.us.magentosite.cloud\/carrots-strawberries-chickpeas",
      "image":"https:\/\/test-t6dnbai-q7lkii7t52xiq.us.magentosite.cloud\/media\/catalog\/product\/cache\/afad95d7734d2fa6d0a8ba78597182b7\/h\/b\/hb-store-clearlycrafted_cscfop.png",
      "allergens":false,
      "product_line":"Clearly Crafted Pouches"
   },
   "127":{  
      "id":"127",
      "name":"Purple Carrots, Bananas, Avocados & Quinoa",
      "url":"https:\/\/test-t6dnbai-q7lkii7t52xiq.us.magentosite.cloud\/purple-carrots-bananas-avocados-quinoa",
      "image":"https:\/\/test-t6dnbai-q7lkii7t52xiq.us.magentosite.cloud\/static\/version1533705851\/frontend\/Madwell\/HappyFamily\/en_US\/Magento_Catalog\/images\/product\/placeholder\/image.jpg",
      "allergens":false,
      "product_line":"Clearly Crafted Pouches"
   },
   "128":{  
      "id":"128",
      "name":"Bananas, Plums & Granola",
      "url":"https:\/\/test-t6dnbai-q7lkii7t52xiq.us.magentosite.cloud\/bananas-plums-granola",
      "image":"https:\/\/test-t6dnbai-q7lkii7t52xiq.us.magentosite.cloud\/static\/version1533705851\/frontend\/Madwell\/HappyFamily\/en_US\/Magento_Catalog\/images\/product\/placeholder\/image.jpg",
      "allergens":false,
      "product_line":"Clearly Crafted Pouches"
   },
   "129":{  
      "id":"129",
      "name":"Apples, Sweet Potatoes & Granola",
      "url":"https:\/\/test-t6dnbai-q7lkii7t52xiq.us.magentosite.cloud\/apples-sweet-potatoes-granola",
      "image":"https:\/\/test-t6dnbai-q7lkii7t52xiq.us.magentosite.cloud\/static\/version1533705851\/frontend\/Madwell\/HappyFamily\/en_US\/Magento_Catalog\/images\/product\/placeholder\/image.jpg",
      "allergens":false,
      "product_line":"Clearly Crafted Pouches"
   },
   "130":{  
      "id":"130",
      "name":"Zucchini, Apples, Peas, Quinoa & Basil",
      "url":"https:\/\/test-t6dnbai-q7lkii7t52xiq.us.magentosite.cloud\/zucchini-apples-peas-quinoa-basil",
      "image":"https:\/\/test-t6dnbai-q7lkii7t52xiq.us.magentosite.cloud\/static\/version1533705851\/frontend\/Madwell\/HappyFamily\/en_US\/Magento_Catalog\/images\/product\/placeholder\/image.jpg",
      "allergens":false,
      "product_line":"Clearly Crafted Pouches"
   },
   "131":{  
      "id":"131",
      "name":"Pears",
      "url":"https:\/\/test-t6dnbai-q7lkii7t52xiq.us.magentosite.cloud\/pears",
      "image":"https:\/\/test-t6dnbai-q7lkii7t52xiq.us.magentosite.cloud\/static\/version1533705851\/frontend\/Madwell\/HappyFamily\/en_US\/Magento_Catalog\/images\/product\/placeholder\/image.jpg",
      "allergens":false,
      "product_line":"Clearly Crafted Pouches"
   },
   "132":{  
      "id":"132",
      "name":"Sweet Potatoes",
      "url":"https:\/\/test-t6dnbai-q7lkii7t52xiq.us.magentosite.cloud\/sweet-potatoes",
      "image":"https:\/\/test-t6dnbai-q7lkii7t52xiq.us.magentosite.cloud\/static\/version1533705851\/frontend\/Madwell\/HappyFamily\/en_US\/Magento_Catalog\/images\/product\/placeholder\/image.jpg",
      "allergens":false,
      "product_line":"Clearly Crafted Pouches"
   },
   "133":{  
      "id":"133",
      "name":"Apples & Spinach",
      "url":"https:\/\/test-t6dnbai-q7lkii7t52xiq.us.magentosite.cloud\/apples-spinach",
      "image":"https:\/\/test-t6dnbai-q7lkii7t52xiq.us.magentosite.cloud\/static\/version1533705851\/frontend\/Madwell\/HappyFamily\/en_US\/Magento_Catalog\/images\/product\/placeholder\/image.jpg",
      "allergens":false,
      "product_line":"Clearly Crafted Pouches"
   },
   "134":{  
      "id":"134",
      "name":"Bananas & Sweet Potatoes",
      "url":"https:\/\/test-t6dnbai-q7lkii7t52xiq.us.magentosite.cloud\/bananas-sweet-potatoes",
      "image":"https:\/\/test-t6dnbai-q7lkii7t52xiq.us.magentosite.cloud\/static\/version1533705851\/frontend\/Madwell\/HappyFamily\/en_US\/Magento_Catalog\/images\/product\/placeholder\/image.jpg",
      "allergens":false,
      "product_line":"Clearly Crafted Pouches"
   },
   "135":{  
      "id":"135",
      "name":"Bananas & Strawberries",
      "url":"https:\/\/test-t6dnbai-q7lkii7t52xiq.us.magentosite.cloud\/bananas-strawberries",
      "image":"https:\/\/test-t6dnbai-q7lkii7t52xiq.us.magentosite.cloud\/static\/version1533705851\/frontend\/Madwell\/HappyFamily\/en_US\/Magento_Catalog\/images\/product\/placeholder\/image.jpg",
      "allergens":false,
      "product_line":"Clearly Crafted Pouches"
   },
   "137":{  
      "id":"137",
      "name":"Apples & Blueberries",
      "url":"https:\/\/test-t6dnbai-q7lkii7t52xiq.us.magentosite.cloud\/apples-blueberries",
      "image":"https:\/\/test-t6dnbai-q7lkii7t52xiq.us.magentosite.cloud\/static\/version1533705851\/frontend\/Madwell\/HappyFamily\/en_US\/Magento_Catalog\/images\/product\/placeholder\/image.jpg",
      "allergens":false,
      "product_line":"Clearly Crafted Pouches"
   },
   "138":{  
      "id":"138",
      "name":"Apples, Oats & Cinnamon",
      "url":"https:\/\/test-t6dnbai-q7lkii7t52xiq.us.magentosite.cloud\/apples-oats-cinnamon",
      "image":"https:\/\/test-t6dnbai-q7lkii7t52xiq.us.magentosite.cloud\/static\/version1533705851\/frontend\/Madwell\/HappyFamily\/en_US\/Magento_Catalog\/images\/product\/placeholder\/image.jpg",
      "allergens":false,
      "product_line":"Clearly Crafted Pouches"
   },
   "139":{  
      "id":"139",
      "name":"Pears, Spinach & Mangos",
      "url":"https:\/\/test-t6dnbai-q7lkii7t52xiq.us.magentosite.cloud\/pears-spinach-mangos",
      "image":"https:\/\/test-t6dnbai-q7lkii7t52xiq.us.magentosite.cloud\/static\/version1533705851\/frontend\/Madwell\/HappyFamily\/en_US\/Magento_Catalog\/images\/product\/placeholder\/image.jpg",
      "allergens":false,
      "product_line":"Clearly Crafted Pouches"
   },
   "140":{  
      "id":"140",
      "name":"Bananas, Beets & Blueberries",
      "url":"https:\/\/test-t6dnbai-q7lkii7t52xiq.us.magentosite.cloud\/bananas-beets-blueberries-6-12mo",
      "image":"https:\/\/test-t6dnbai-q7lkii7t52xiq.us.magentosite.cloud\/static\/version1533705851\/frontend\/Madwell\/HappyFamily\/en_US\/Magento_Catalog\/images\/product\/placeholder\/image.jpg",
      "allergens":false,
      "product_line":"Clearly Crafted Pouches"
   },
   "141":{  
      "id":"141",
      "name":"Pears, Pumpkin & Passion Fruit",
      "url":"https:\/\/test-t6dnbai-q7lkii7t52xiq.us.magentosite.cloud\/pears-pumpkin-passion-fruit",
      "image":"https:\/\/test-t6dnbai-q7lkii7t52xiq.us.magentosite.cloud\/media\/catalog\/product\/cache\/afad95d7734d2fa6d0a8ba78597182b7\/h\/b\/hb-store-clearlycrafted_pppffop.png",
      "allergens":false,
      "product_line":"Clearly Crafted Pouches"
   },
   "142":{  
      "id":"142",
      "name":"Strawberry, Raspberry & Carrot",
      "url":"https:\/\/test-t6dnbai-q7lkii7t52xiq.us.magentosite.cloud\/strawberry-raspberry-carrot",
      "image":"https:\/\/test-t6dnbai-q7lkii7t52xiq.us.magentosite.cloud\/media\/catalog\/product\/cache\/afad95d7734d2fa6d0a8ba78597182b7\/h\/b\/hb-store-creamies_strawberryraspcarrotfop.png",
      "allergens":false,
      "product_line":"Coconut Creamies Snack"
   },
   "143":{  
      "id":"143",
      "name":"Apple, Spinach, Pea & Kiwi",
      "url":"https:\/\/test-t6dnbai-q7lkii7t52xiq.us.magentosite.cloud\/apple-spinach-pea-kiwi",
      "image":"https:\/\/test-t6dnbai-q7lkii7t52xiq.us.magentosite.cloud\/media\/catalog\/product\/cache\/afad95d7734d2fa6d0a8ba78597182b7\/h\/b\/hb-store-creamies_applespinachpeakiwifop.png",
      "allergens":false,
      "product_line":"Coconut Creamies Snack"
   },
   "144":{  
      "id":"144",
      "name":"Pears, Kiwi & Kale",
      "url":"https:\/\/test-t6dnbai-q7lkii7t52xiq.us.magentosite.cloud\/pears-kiwi-kale",
      "image":"https:\/\/test-t6dnbai-q7lkii7t52xiq.us.magentosite.cloud\/static\/version1533705851\/frontend\/Madwell\/HappyFamily\/en_US\/Magento_Catalog\/images\/product\/placeholder\/image.jpg",
      "allergens":false,
      "product_line":"Fiber &amp; Protein Pouches"
   },
   "145":{  
      "id":"145",
      "name":"Pears, Blueberries & Spinach",
      "url":"https:\/\/test-t6dnbai-q7lkii7t52xiq.us.magentosite.cloud\/pears-blueberries-spinach",
      "image":"https:\/\/test-t6dnbai-q7lkii7t52xiq.us.magentosite.cloud\/static\/version1533705851\/frontend\/Madwell\/HappyFamily\/en_US\/Magento_Catalog\/images\/product\/placeholder\/image.jpg",
      "allergens":false,
      "product_line":"Fiber &amp; Protein Pouches"
   },
   "146":{  
      "id":"146",
      "name":"Soft-Baked Oat Bars: Apple & Spinach",
      "url":"https:\/\/test-t6dnbai-q7lkii7t52xiq.us.magentosite.cloud\/apple-spinach",
      "image":"https:\/\/test-t6dnbai-q7lkii7t52xiq.us.magentosite.cloud\/media\/catalog\/product\/cache\/afad95d7734d2fa6d0a8ba78597182b7\/h\/t\/ht-store-ht-store-fp_as_bar_box_fop.png",
      "allergens":false,
      "product_line":"Fiber &amp; Protein Pouches"
   },
   "147":{  
      "id":"147",
      "name":"Soft-Baked Oat Bars: Bananas & Carrots",
      "url":"https:\/\/test-t6dnbai-q7lkii7t52xiq.us.magentosite.cloud\/banana-carrot",
      "image":"https:\/\/test-t6dnbai-q7lkii7t52xiq.us.magentosite.cloud\/media\/catalog\/product\/cache\/afad95d7734d2fa6d0a8ba78597182b7\/h\/t\/ht-store-fp_bc_bar_box_fop.png",
      "allergens":false,
      "product_line":"Fiber &amp; Protein Pouches"
   },
   "148":{  
      "id":"148",
      "name":"Pears, Raspberries, Butternut Squash & Carrots",
      "url":"https:\/\/test-t6dnbai-q7lkii7t52xiq.us.magentosite.cloud\/pears-raspberries-butternut-squash-carrots",
      "image":"https:\/\/test-t6dnbai-q7lkii7t52xiq.us.magentosite.cloud\/static\/version1533705851\/frontend\/Madwell\/HappyFamily\/en_US\/Magento_Catalog\/images\/product\/placeholder\/image.jpg",
      "allergens":false,
      "product_line":"Fiber &amp; Protein Pouches"
   },
   "149":{  
      "id":"149",
      "name":"Pears, Apples, Peaches, Pumpkin & Cinnamon",
      "url":"https:\/\/test-t6dnbai-q7lkii7t52xiq.us.magentosite.cloud\/pears-apples-peaches-pumpkin-cinnamon",
      "image":"https:\/\/test-t6dnbai-q7lkii7t52xiq.us.magentosite.cloud\/static\/version1533705851\/frontend\/Madwell\/HappyFamily\/en_US\/Magento_Catalog\/images\/product\/placeholder\/image.jpg",
      "allergens":false,
      "product_line":"Fiber &amp; Protein Pouches"
   },
   "150":{  
      "id":"150",
      "name":"Apple Cinnamon",
      "url":"https:\/\/test-t6dnbai-q7lkii7t52xiq.us.magentosite.cloud\/apple-cinnamon",
      "image":"https:\/\/test-t6dnbai-q7lkii7t52xiq.us.magentosite.cloud\/static\/version1533705851\/frontend\/Madwell\/HappyFamily\/en_US\/Magento_Catalog\/images\/product\/placeholder\/image.jpg",
      "allergens":false,
      "product_line":"Fruit &amp; Oat Bars"
   },
   "151":{  
      "id":"151",
      "name":"Banana + Chocolate",
      "url":"https:\/\/test-t6dnbai-q7lkii7t52xiq.us.magentosite.cloud\/banana-chocolate",
      "image":"https:\/\/test-t6dnbai-q7lkii7t52xiq.us.magentosite.cloud\/static\/version1533705851\/frontend\/Madwell\/HappyFamily\/en_US\/Magento_Catalog\/images\/product\/placeholder\/image.jpg",
      "allergens":false,
      "product_line":"Fruit &amp; Oat Bars"
   },
   "152":{  
      "id":"152",
      "name":"Blueberry + Raspberry",
      "url":"https:\/\/test-t6dnbai-q7lkii7t52xiq.us.magentosite.cloud\/blueberry-raspberry",
      "image":"https:\/\/test-t6dnbai-q7lkii7t52xiq.us.magentosite.cloud\/static\/version1533705851\/frontend\/Madwell\/HappyFamily\/en_US\/Magento_Catalog\/images\/product\/placeholder\/image.jpg",
      "allergens":false,
      "product_line":"Fruit &amp; Oat Bars"
   },
   "153":{  
      "id":"153",
      "name":"Blueberry & Purple Carrot",
      "url":"https:\/\/test-t6dnbai-q7lkii7t52xiq.us.magentosite.cloud\/blueberry-purple-carrot-2",
      "image":"https:\/\/test-t6dnbai-q7lkii7t52xiq.us.magentosite.cloud\/media\/catalog\/product\/cache\/afad95d7734d2fa6d0a8ba78597182b7\/1\/2\/120417_baby_teethers_box_blueberrypurplecarrot_fop.jpg",
      "allergens":false,
      "product_line":"Gentle Teethers"
   },
   "154":{  
      "id":"154",
      "name":"Banana & Sweet Potato",
      "url":"https:\/\/test-t6dnbai-q7lkii7t52xiq.us.magentosite.cloud\/banana-sweet-potato",
      "image":"https:\/\/test-t6dnbai-q7lkii7t52xiq.us.magentosite.cloud\/media\/catalog\/product\/cache\/afad95d7734d2fa6d0a8ba78597182b7\/h\/b\/hb-store-teethers_sweetpotatobananafop.png",
      "allergens":false,
      "product_line":"Gentle Teethers"
   },
   "155":{  
      "id":"155",
      "name":"Pea & Spinach",
      "url":"https:\/\/test-t6dnbai-q7lkii7t52xiq.us.magentosite.cloud\/pea-spinach",
      "image":"https:\/\/test-t6dnbai-q7lkii7t52xiq.us.magentosite.cloud\/media\/catalog\/product\/cache\/afad95d7734d2fa6d0a8ba78597182b7\/h\/b\/hb-store-teethers_peaspinachfop.png",
      "allergens":false,
      "product_line":"Gentle Teethers"
   },
   "156":{  
      "id":"156",
      "name":"Apple, Kale & Mango",
      "url":"https:\/\/test-t6dnbai-q7lkii7t52xiq.us.magentosite.cloud\/apple-kale-mango",
      "image":"https:\/\/test-t6dnbai-q7lkii7t52xiq.us.magentosite.cloud\/static\/version1533705851\/frontend\/Madwell\/HappyFamily\/en_US\/Magento_Catalog\/images\/product\/placeholder\/image.jpg",
      "allergens":false,
      "product_line":"Happy Squeeze Pouches"
   },
   "157":{  
      "id":"157",
      "name":"Apple, Beet, Strawberry & Kiwi",
      "url":"https:\/\/test-t6dnbai-q7lkii7t52xiq.us.magentosite.cloud\/apple-beet-strawberry-kiwi",
      "image":"https:\/\/test-t6dnbai-q7lkii7t52xiq.us.magentosite.cloud\/static\/version1533705851\/frontend\/Madwell\/HappyFamily\/en_US\/Magento_Catalog\/images\/product\/placeholder\/image.jpg",
      "allergens":false,
      "product_line":"Happy Squeeze Pouches"
   },
   "158":{  
      "id":"158",
      "name":"Apple, Blueberry & Pomegranate",
      "url":"https:\/\/test-t6dnbai-q7lkii7t52xiq.us.magentosite.cloud\/apple-blueberry-pomegranate",
      "image":"https:\/\/test-t6dnbai-q7lkii7t52xiq.us.magentosite.cloud\/static\/version1533705851\/frontend\/Madwell\/HappyFamily\/en_US\/Magento_Catalog\/images\/product\/placeholder\/image.jpg",
      "allergens":false,
      "product_line":"Happy Squeeze Pouches"
   },
   "159":{  
      "id":"159",
      "name":"Apple, Kale & Blueberry",
      "url":"https:\/\/test-t6dnbai-q7lkii7t52xiq.us.magentosite.cloud\/apple-kale-blueberry",
      "image":"https:\/\/test-t6dnbai-q7lkii7t52xiq.us.magentosite.cloud\/static\/version1533705851\/frontend\/Madwell\/HappyFamily\/en_US\/Magento_Catalog\/images\/product\/placeholder\/image.jpg",
      "allergens":false,
      "product_line":"Happy Squeeze Pouches"
   },
   "160":{  
      "id":"160",
      "name":"Banana, Mango & Spinach",
      "url":"https:\/\/test-t6dnbai-q7lkii7t52xiq.us.magentosite.cloud\/banana-mango-spinach",
      "image":"https:\/\/test-t6dnbai-q7lkii7t52xiq.us.magentosite.cloud\/static\/version1533705851\/frontend\/Madwell\/HappyFamily\/en_US\/Magento_Catalog\/images\/product\/placeholder\/image.jpg",
      "allergens":false,
      "product_line":"Happy Squeeze Pouches"
   },
   "161":{  
      "id":"161",
      "name":"Harvest Vegetables & Chicken with Quinoa",
      "url":"https:\/\/test-t6dnbai-q7lkii7t52xiq.us.magentosite.cloud\/harvest-vegetables-chicken-quinoa",
      "image":"https:\/\/test-t6dnbai-q7lkii7t52xiq.us.magentosite.cloud\/media\/catalog\/product\/cache\/afad95d7734d2fa6d0a8ba78597182b7\/h\/b\/hb-store-heartymeals_harvest-vegetables-chickenfop.png",
      "allergens":false,
      "product_line":false
   },
   "162":{  
      "id":"162",
      "name":"Root Vegetables & Turkey with Quinoa",
      "url":"https:\/\/test-t6dnbai-q7lkii7t52xiq.us.magentosite.cloud\/root-vegetables-turkey",
      "image":"https:\/\/test-t6dnbai-q7lkii7t52xiq.us.magentosite.cloud\/media\/catalog\/product\/cache\/afad95d7734d2fa6d0a8ba78597182b7\/h\/b\/hb-store-heartymeals_root-vegetables-turkeyfop.png",
      "allergens":false,
      "product_line":false
   },
   "163":{  
      "id":"163",
      "name":"Vegetables & Beef Medley with Quinoa",
      "url":"https:\/\/test-t6dnbai-q7lkii7t52xiq.us.magentosite.cloud\/vegetables-beef-medley-quinoa",
      "image":"https:\/\/test-t6dnbai-q7lkii7t52xiq.us.magentosite.cloud\/media\/catalog\/product\/cache\/afad95d7734d2fa6d0a8ba78597182b7\/h\/b\/hb-store-heartymeals_vegetable-beef-medleyfop.png",
      "allergens":false,
      "product_line":false
   },
   "164":{  
      "id":"164",
      "name":"Infant Formula Milk Based Powder with Iron",
      "url":"https:\/\/test-t6dnbai-q7lkii7t52xiq.us.magentosite.cloud\/stage1",
      "image":"https:\/\/test-t6dnbai-q7lkii7t52xiq.us.magentosite.cloud\/media\/catalog\/product\/cache\/afad95d7734d2fa6d0a8ba78597182b7\/h\/a\/happybaby-formula-s1-fop.png",
      "allergens":false,
      "product_line":"Organic Formula"
   },
   "165":{  
      "id":"165",
      "name":"Infant Formula Milk with Iron: Stage 2",
      "url":"https:\/\/test-t6dnbai-q7lkii7t52xiq.us.magentosite.cloud\/stage-2",
      "image":"https:\/\/test-t6dnbai-q7lkii7t52xiq.us.magentosite.cloud\/media\/catalog\/product\/cache\/afad95d7734d2fa6d0a8ba78597182b7\/h\/b\/hb-formula-stage2_fop-min.png",
      "allergens":false,
      "product_line":"Organic Formula"
   },
   "166":{  
      "id":"166",
      "name":"Carrot, Banana, Mango & Sweet Potato",
      "url":"https:\/\/test-t6dnbai-q7lkii7t52xiq.us.magentosite.cloud\/carrot-banana-mango-sweet-potato",
      "image":"https:\/\/test-t6dnbai-q7lkii7t52xiq.us.magentosite.cloud\/static\/version1533705851\/frontend\/Madwell\/HappyFamily\/en_US\/Magento_Catalog\/images\/product\/placeholder\/image.jpg",
      "allergens":false,
      "product_line":"Love My Veggies Pouches"
   },
   "167":{  
      "id":"167",
      "name":"Bananas, Beets, Squash & Blueberries",
      "url":"https:\/\/test-t6dnbai-q7lkii7t52xiq.us.magentosite.cloud\/banana-beet-squash-blueberry-pouch",
      "image":"https:\/\/test-t6dnbai-q7lkii7t52xiq.us.magentosite.cloud\/media\/catalog\/product\/cache\/afad95d7734d2fa6d0a8ba78597182b7\/h\/b\/hb-lmv_bbs_fop_5_1_1.png",
      "allergens":false,
      "product_line":"Love My Veggies Pouches"
   },
   "168":{  
      "id":"168",
      "name":"Spinach, Apple, Sweet Potato & Kiwi",
      "url":"https:\/\/test-t6dnbai-q7lkii7t52xiq.us.magentosite.cloud\/spinach-apple-sweet-potato-kiwi",
      "image":"https:\/\/test-t6dnbai-q7lkii7t52xiq.us.magentosite.cloud\/static\/version1533705851\/frontend\/Madwell\/HappyFamily\/en_US\/Magento_Catalog\/images\/product\/placeholder\/image.jpg",
      "allergens":false,
      "product_line":"Love My Veggies Pouches"
   },
   "169":{  
      "id":"169",
      "name":"Zucchini, Pear, Chickpeas & Kale",
      "url":"https:\/\/test-t6dnbai-q7lkii7t52xiq.us.magentosite.cloud\/zucchini-pear-chickpeas-kale",
      "image":"https:\/\/test-t6dnbai-q7lkii7t52xiq.us.magentosite.cloud\/static\/version1533705851\/frontend\/Madwell\/HappyFamily\/en_US\/Magento_Catalog\/images\/product\/placeholder\/image.jpg",
      "allergens":false,
      "product_line":"Love My Veggies Pouches"
   },
   "170":{  
      "id":"170",
      "name":"Chickpea Straws: Sweet Potato & Rosemary",
      "url":"https:\/\/test-t6dnbai-q7lkii7t52xiq.us.magentosite.cloud\/chickpea-straws-sweet-potato-rosemary",
      "image":"https:\/\/test-t6dnbai-q7lkii7t52xiq.us.magentosite.cloud\/static\/version1533705851\/frontend\/Madwell\/HappyFamily\/en_US\/Magento_Catalog\/images\/product\/placeholder\/image.jpg",
      "allergens":false,
      "product_line":"Love My Veggies Pouches"
   },
   "171":{  
      "id":"171",
      "name":"Chickpea Straws: Cheddar & Spinach",
      "url":"https:\/\/test-t6dnbai-q7lkii7t52xiq.us.magentosite.cloud\/chickpea-straws-cheddar-spinach",
      "image":"https:\/\/test-t6dnbai-q7lkii7t52xiq.us.magentosite.cloud\/static\/version1533705851\/frontend\/Madwell\/HappyFamily\/en_US\/Magento_Catalog\/images\/product\/placeholder\/image.jpg",
      "allergens":false,
      "product_line":"Love My Veggies Pouches"
   },
   "172":{  
      "id":"172",
      "name":"Organic Toddler Milk",
      "url":"https:\/\/test-t6dnbai-q7lkii7t52xiq.us.magentosite.cloud\/organic-toddler-milk",
      "image":"https:\/\/test-t6dnbai-q7lkii7t52xiq.us.magentosite.cloud\/static\/version1533705851\/frontend\/Madwell\/HappyFamily\/en_US\/Magento_Catalog\/images\/product\/placeholder\/image.jpg",
      "allergens":false,
      "product_line":"Organic Toddler Milk"
   },
   "173":{  
      "id":"173",
      "name":"Strawberry",
      "url":"https:\/\/test-t6dnbai-q7lkii7t52xiq.us.magentosite.cloud\/strawberry",
      "image":"https:\/\/test-t6dnbai-q7lkii7t52xiq.us.magentosite.cloud\/media\/catalog\/product\/cache\/afad95d7734d2fa6d0a8ba78597182b7\/h\/b\/hb-store-yogis_strawberry_fop.png",
      "allergens":false,
      "product_line":"Yogis"
   },
   "174":{  
      "id":"174",
      "name":"Mixed Berry",
      "url":"https:\/\/test-t6dnbai-q7lkii7t52xiq.us.magentosite.cloud\/mixed-berry-yogurt-melts",
      "image":"https:\/\/test-t6dnbai-q7lkii7t52xiq.us.magentosite.cloud\/media\/catalog\/product\/cache\/afad95d7734d2fa6d0a8ba78597182b7\/h\/b\/hb-yogis_mixedberry_fop-min.png",
      "allergens":false,
      "product_line":"Yogis"
   },
   "175":{  
      "id":"175",
      "name":"Banana Mango",
      "url":"https:\/\/test-t6dnbai-q7lkii7t52xiq.us.magentosite.cloud\/banana-mango",
      "image":"https:\/\/test-t6dnbai-q7lkii7t52xiq.us.magentosite.cloud\/media\/catalog\/product\/cache\/afad95d7734d2fa6d0a8ba78597182b7\/h\/b\/hb-store-yogis_bananamango_fop.png",
      "allergens":false,
      "product_line":"Yogis"
   },
   "176":{  
      "id":"176",
      "name":"Strawberry Banana Greek Yogis",
      "url":"https:\/\/test-t6dnbai-q7lkii7t52xiq.us.magentosite.cloud\/strawberry-banana-greek-yogis",
      "image":"https:\/\/test-t6dnbai-q7lkii7t52xiq.us.magentosite.cloud\/media\/catalog\/product\/cache\/afad95d7734d2fa6d0a8ba78597182b7\/h\/b\/hb-store-yogis_strawberrybanana_fop.png",
      "allergens":false,
      "product_line":"Yogis"
   },
   "177":{  
      "id":"177",
      "name":"Blueberry Purple Carrot Greek Yogis",
      "url":"https:\/\/test-t6dnbai-q7lkii7t52xiq.us.magentosite.cloud\/blueberry-purple-carrot-greek-yogis",
      "image":"https:\/\/test-t6dnbai-q7lkii7t52xiq.us.magentosite.cloud\/media\/catalog\/product\/cache\/afad95d7734d2fa6d0a8ba78597182b7\/h\/b\/hb-store-yogis_blueberrypurplecarrot_fop.png",
      "allergens":false,
      "product_line":"Yogis"
   },
   "178":{  
      "id":"178",
      "name":"Apple",
      "url":"https:\/\/test-t6dnbai-q7lkii7t52xiq.us.magentosite.cloud\/apple",
      "image":"https:\/\/test-t6dnbai-q7lkii7t52xiq.us.magentosite.cloud\/media\/catalog\/product\/cache\/afad95d7734d2fa6d0a8ba78597182b7\/h\/b\/hb-store-ricecakes_applefop.png",
      "allergens":false,
      "product_line":"Rice Cakes"
   },
   "179":{  
      "id":"179",
      "name":"Blueberry & Beet",
      "url":"https:\/\/test-t6dnbai-q7lkii7t52xiq.us.magentosite.cloud\/blueberry-beet",
      "image":"https:\/\/test-t6dnbai-q7lkii7t52xiq.us.magentosite.cloud\/media\/catalog\/product\/cache\/afad95d7734d2fa6d0a8ba78597182b7\/h\/b\/hb-store-ricecakes_blueberrybeetfop.png",
      "allergens":false,
      "product_line":"Rice Cakes"
   },
   "180":{  
      "id":"180",
      "name":"Apricots, Sweet Potatoes & Bananas",
      "url":"https:\/\/test-t6dnbai-q7lkii7t52xiq.us.magentosite.cloud\/apricots-sweet-potatoes-bananas",
      "image":"https:\/\/test-t6dnbai-q7lkii7t52xiq.us.magentosite.cloud\/media\/catalog\/product\/cache\/afad95d7734d2fa6d0a8ba78597182b7\/h\/b\/hb-store-s2_apricotswtpotatofop.png",
      "allergens":false,
      "product_line":"Simple Combos"
   },
   "181":{  
      "id":"181",
      "name":"Bananas, Beets & Blueberries",
      "url":"https:\/\/test-t6dnbai-q7lkii7t52xiq.us.magentosite.cloud\/bananas-beets-blueberries",
      "image":"https:\/\/test-t6dnbai-q7lkii7t52xiq.us.magentosite.cloud\/media\/catalog\/product\/cache\/afad95d7734d2fa6d0a8ba78597182b7\/h\/b\/hb-store-s2_bananabeetblueberryfop.png",
      "allergens":false,
      "product_line":"Simple Combos"
   },
   "182":{  
      "id":"182",
      "name":"Spinach, Mangos & Pears",
      "url":"https:\/\/test-t6dnbai-q7lkii7t52xiq.us.magentosite.cloud\/spinach-mango-pear",
      "image":"https:\/\/test-t6dnbai-q7lkii7t52xiq.us.magentosite.cloud\/media\/catalog\/product\/cache\/afad95d7734d2fa6d0a8ba78597182b7\/h\/b\/hb-store-s2_spinachmangopearfop.png",
      "allergens":false,
      "product_line":"Simple Combos"
   },
   "183":{  
      "id":"183",
      "name":"Broccoli, Pears & Peas",
      "url":"https:\/\/test-t6dnbai-q7lkii7t52xiq.us.magentosite.cloud\/broccoli-pears-peas",
      "image":"https:\/\/test-t6dnbai-q7lkii7t52xiq.us.magentosite.cloud\/media\/catalog\/product\/cache\/afad95d7734d2fa6d0a8ba78597182b7\/h\/b\/hb-store-s2_broccolipearpeafop.png",
      "allergens":false,
      "product_line":"Simple Combos"
   },
   "184":{  
      "id":"184",
      "name":"Apples, Spinach & Kale",
      "url":"https:\/\/test-t6dnbai-q7lkii7t52xiq.us.magentosite.cloud\/apples-spinach-kale",
      "image":"https:\/\/test-t6dnbai-q7lkii7t52xiq.us.magentosite.cloud\/media\/catalog\/product\/cache\/afad95d7734d2fa6d0a8ba78597182b7\/h\/a\/happy-tot-sm-clear-pouch-acyo_2.png",
      "allergens":false,
      "product_line":"Simple Combos"
   },
   "185":{  
      "id":"185",
      "name":"Pumpkin, Apples, Peaches & Cinnamon",
      "url":"https:\/\/test-t6dnbai-q7lkii7t52xiq.us.magentosite.cloud\/pumpkin-apples-peaches-cinnamon",
      "image":"https:\/\/test-t6dnbai-q7lkii7t52xiq.us.magentosite.cloud\/media\/catalog\/product\/cache\/afad95d7734d2fa6d0a8ba78597182b7\/h\/a\/happy-tot-sm-clear-pouch-acyo_1.png",
      "allergens":false,
      "product_line":"Simple Combos"
   },
   "186":{  
      "id":"186",
      "name":"Pears, Blueberries & Beets with Super Chia",
      "url":"https:\/\/test-t6dnbai-q7lkii7t52xiq.us.magentosite.cloud\/pears-blueberries-beets",
      "image":"https:\/\/test-t6dnbai-q7lkii7t52xiq.us.magentosite.cloud\/static\/version1533705851\/frontend\/Madwell\/HappyFamily\/en_US\/Magento_Catalog\/images\/product\/placeholder\/image.jpg",
      "allergens":false,
      "product_line":"Superfoods"
   },
   "187":{  
      "id":"187",
      "name":"Apples, Spinach, Peas & Broccoli with Super Chia",
      "url":"https:\/\/test-t6dnbai-q7lkii7t52xiq.us.magentosite.cloud\/apples-spinach-peas-broccoli",
      "image":"https:\/\/test-t6dnbai-q7lkii7t52xiq.us.magentosite.cloud\/static\/version1533705851\/frontend\/Madwell\/HappyFamily\/en_US\/Magento_Catalog\/images\/product\/placeholder\/image.jpg",
      "allergens":false,
      "product_line":"Superfoods"
   },
   "188":{  
      "id":"188",
      "name":"Pears, Bananas, Sweet Potatoes & Pumpkin with Super Chia",
      "url":"https:\/\/test-t6dnbai-q7lkii7t52xiq.us.magentosite.cloud\/pears-bananas-sweet-potatoes-pumpkin",
      "image":"https:\/\/test-t6dnbai-q7lkii7t52xiq.us.magentosite.cloud\/static\/version1533705851\/frontend\/Madwell\/HappyFamily\/en_US\/Magento_Catalog\/images\/product\/placeholder\/image.jpg",
      "allergens":false,
      "product_line":"Superfoods"
   },
   "189":{  
      "id":"189",
      "name":"Ancient Grain Dino Snacks: Tomato, Basil & Cheddar",
      "url":"https:\/\/test-t6dnbai-q7lkii7t52xiq.us.magentosite.cloud\/tomato-basil-cheddar",
      "image":"https:\/\/test-t6dnbai-q7lkii7t52xiq.us.magentosite.cloud\/static\/version1533705851\/frontend\/Madwell\/HappyFamily\/en_US\/Magento_Catalog\/images\/product\/placeholder\/image.jpg",
      "allergens":false,
      "product_line":"Superfoods"
   },
   "190":{  
      "id":"190",
      "name":"Pears, Peas & Green Beans with Super Chia",
      "url":"https:\/\/test-t6dnbai-q7lkii7t52xiq.us.magentosite.cloud\/green-beans-spinach-pears",
      "image":"https:\/\/test-t6dnbai-q7lkii7t52xiq.us.magentosite.cloud\/static\/version1533705851\/frontend\/Madwell\/HappyFamily\/en_US\/Magento_Catalog\/images\/product\/placeholder\/image.jpg",
      "allergens":false,
      "product_line":"Superfoods"
   },
   "191":{  
      "id":"191",
      "name":"Apples, Sweet Potatoes, Carrots & Cinnamon with Super Chia",
      "url":"https:\/\/test-t6dnbai-q7lkii7t52xiq.us.magentosite.cloud\/apples-sweet-potatoes-carrots-cinnamon",
      "image":"https:\/\/test-t6dnbai-q7lkii7t52xiq.us.magentosite.cloud\/static\/version1533705851\/frontend\/Madwell\/HappyFamily\/en_US\/Magento_Catalog\/images\/product\/placeholder\/image.jpg",
      "allergens":false,
      "product_line":"Superfoods"
   },
   "192":{  
      "id":"192",
      "name":"Pears, Mangos & Spinach",
      "url":"https:\/\/test-t6dnbai-q7lkii7t52xiq.us.magentosite.cloud\/pears-mangos-spinach",
      "image":"https:\/\/test-t6dnbai-q7lkii7t52xiq.us.magentosite.cloud\/static\/version1533705851\/frontend\/Madwell\/HappyFamily\/en_US\/Magento_Catalog\/images\/product\/placeholder\/image.jpg",
      "allergens":false,
      "product_line":"Superfoods"
   },
   "193":{  
      "id":"193",
      "name":"Apples & Butternut Squash with Super Chia",
      "url":"https:\/\/test-t6dnbai-q7lkii7t52xiq.us.magentosite.cloud\/apples-butternut-squash",
      "image":"https:\/\/test-t6dnbai-q7lkii7t52xiq.us.magentosite.cloud\/static\/version1533705851\/frontend\/Madwell\/HappyFamily\/en_US\/Magento_Catalog\/images\/product\/placeholder\/image.jpg",
      "allergens":false,
      "product_line":"Superfoods"
   },
   "194":{  
      "id":"194",
      "name":"Bananas, Peaches, Prunes & Coconut with Super Chia",
      "url":"https:\/\/test-t6dnbai-q7lkii7t52xiq.us.magentosite.cloud\/bananas-peaches-prunes-coconut",
      "image":"https:\/\/test-t6dnbai-q7lkii7t52xiq.us.magentosite.cloud\/static\/version1533705851\/frontend\/Madwell\/HappyFamily\/en_US\/Magento_Catalog\/images\/product\/placeholder\/image.jpg",
      "allergens":false,
      "product_line":"Superfoods"
   },
   "195":{  
      "id":"195",
      "name":"Bananas, Peaches & Mangos with Super Chia",
      "url":"https:\/\/test-t6dnbai-q7lkii7t52xiq.us.magentosite.cloud\/bananas-peaches-mangos",
      "image":"https:\/\/test-t6dnbai-q7lkii7t52xiq.us.magentosite.cloud\/static\/version1533705851\/frontend\/Madwell\/HappyFamily\/en_US\/Magento_Catalog\/images\/product\/placeholder\/image.jpg",
      "allergens":false,
      "product_line":"Superfoods"
   },
   "196":{  
      "id":"196",
      "name":"Ancient Grain Dino Snacks: Kale, Spinach & Cheddar",
      "url":"https:\/\/test-t6dnbai-q7lkii7t52xiq.us.magentosite.cloud\/kale-spinach-cheddar-puffed-snack",
      "image":"https:\/\/test-t6dnbai-q7lkii7t52xiq.us.magentosite.cloud\/media\/catalog\/product\/cache\/afad95d7734d2fa6d0a8ba78597182b7\/h\/b\/hb-ht_sf_ksc_fop-min.png",
      "allergens":false,
      "product_line":"Superfoods"
   },
   "197":{  
      "id":"197",
      "name":"Kale, Apple & Mango",
      "url":"https:\/\/test-t6dnbai-q7lkii7t52xiq.us.magentosite.cloud\/kale-apple-mango",
      "image":"https:\/\/test-t6dnbai-q7lkii7t52xiq.us.magentosite.cloud\/static\/version1533705851\/frontend\/Madwell\/HappyFamily\/en_US\/Magento_Catalog\/images\/product\/placeholder\/image.jpg",
      "allergens":false,
      "product_line":"Superfoods"
   },
   "198":{  
      "id":"198",
      "name":"Apples & Blueberries",
      "url":"https:\/\/test-t6dnbai-q7lkii7t52xiq.us.magentosite.cloud\/apples-blueberries-12m-3yrs",
      "image":"https:\/\/test-t6dnbai-q7lkii7t52xiq.us.magentosite.cloud\/media\/catalog\/product\/cache\/afad95d7734d2fa6d0a8ba78597182b7\/h\/t\/ht-store-bowl-ab-fop.png",
      "allergens":false,
      "product_line":"Super Morning"
   },
   "199":{  
      "id":"199",
      "name":"Bananas & Strawberries",
      "url":"https:\/\/test-t6dnbai-q7lkii7t52xiq.us.magentosite.cloud\/bananas-strawberries-12mo-3yrs",
      "image":"https:\/\/test-t6dnbai-q7lkii7t52xiq.us.magentosite.cloud\/media\/catalog\/product\/cache\/afad95d7734d2fa6d0a8ba78597182b7\/h\/t\/ht-store-bowl-bs-fop.png",
      "allergens":false,
      "product_line":"Super Morning"
   },
   "200":{  
      "id":"200",
      "name":"Bananas, Blueberries, Yogurt & Oats",
      "url":"https:\/\/test-t6dnbai-q7lkii7t52xiq.us.magentosite.cloud\/bananas-blueberries-yogurt-oats",
      "image":"https:\/\/test-t6dnbai-q7lkii7t52xiq.us.magentosite.cloud\/static\/version1533705851\/frontend\/Madwell\/HappyFamily\/en_US\/Magento_Catalog\/images\/product\/placeholder\/image.jpg",
      "allergens":false,
      "product_line":"Super Morning"
   },
   "201":{  
      "id":"201",
      "name":"Apples, Cinnamon, Yogurt & Oats",
      "url":"https:\/\/test-t6dnbai-q7lkii7t52xiq.us.magentosite.cloud\/apples-cinnamon-yogurt-oats",
      "image":"https:\/\/test-t6dnbai-q7lkii7t52xiq.us.magentosite.cloud\/static\/version1533705851\/frontend\/Madwell\/HappyFamily\/en_US\/Magento_Catalog\/images\/product\/placeholder\/image.jpg",
      "allergens":false,
      "product_line":"Super Morning"
   },
   "202":{  
      "id":"202",
      "name":"Bananas, Beets & Strawberries",
      "url":"https:\/\/test-t6dnbai-q7lkii7t52xiq.us.magentosite.cloud\/bananas-beets-strawberries",
      "image":"https:\/\/test-t6dnbai-q7lkii7t52xiq.us.magentosite.cloud\/static\/version1533705851\/frontend\/Madwell\/HappyFamily\/en_US\/Magento_Catalog\/images\/product\/placeholder\/image.jpg",
      "allergens":false,
      "product_line":"Super Smart"
   },
   "203":{  
      "id":"203",
      "name":"Multi-Grain Alphabet Snacks: Cinnamon & Sweet Potato with Flaxseed",
      "url":"https:\/\/test-t6dnbai-q7lkii7t52xiq.us.magentosite.cloud\/multi-grain-alphabet-snacks-cinnamon-sweet-potato-with-flaxseed",
      "image":"https:\/\/test-t6dnbai-q7lkii7t52xiq.us.magentosite.cloud\/media\/catalog\/product\/cache\/afad95d7734d2fa6d0a8ba78597182b7\/h\/t\/ht-store-ss_csp-fop.png",
      "allergens":false,
      "product_line":"Super Smart"
   },
   "204":{  
      "id":"204",
      "name":"Multi-Grain Alphabet Snacks: Vanilla Oat with Flaxseed",
      "url":"https:\/\/test-t6dnbai-q7lkii7t52xiq.us.magentosite.cloud\/multi-grain-alphabet-snacks-vanilla-oat-with-flaxseed",
      "image":"https:\/\/test-t6dnbai-q7lkii7t52xiq.us.magentosite.cloud\/media\/catalog\/product\/cache\/afad95d7734d2fa6d0a8ba78597182b7\/h\/t\/ht-store-ss_vo-fop.png",
      "allergens":false,
      "product_line":"Super Smart"
   },
   "205":{  
      "id":"205",
      "name":"Bananas, Mangos & Spinach with Coconut Milk",
      "url":"https:\/\/test-t6dnbai-q7lkii7t52xiq.us.magentosite.cloud\/bananas-mangos-spinach-with-coconut-milk",
      "image":"https:\/\/test-t6dnbai-q7lkii7t52xiq.us.magentosite.cloud\/static\/version1533705851\/frontend\/Madwell\/HappyFamily\/en_US\/Magento_Catalog\/images\/product\/placeholder\/image.jpg",
      "allergens":false,
      "product_line":"Super Smart"
   },
   "206":{  
      "id":"206",
      "name":"Broccoli, Kale & Cheddar Cheese",
      "url":"https:\/\/test-t6dnbai-q7lkii7t52xiq.us.magentosite.cloud\/broccoli-kale-cheddar-cheese",
      "image":"https:\/\/test-t6dnbai-q7lkii7t52xiq.us.magentosite.cloud\/media\/catalog\/product\/cache\/afad95d7734d2fa6d0a8ba78597182b7\/h\/a\/happybaby_munchies_broccolicheddar_fop.png",
      "allergens":false,
      "product_line":false
   },
   "207":{  
      "id":"207",
      "name":"Apple & Broccoli",
      "url":"https:\/\/test-t6dnbai-q7lkii7t52xiq.us.magentosite.cloud\/apple-broccoli",
      "image":"https:\/\/test-t6dnbai-q7lkii7t52xiq.us.magentosite.cloud\/media\/catalog\/product\/cache\/afad95d7734d2fa6d0a8ba78597182b7\/h\/b\/hb-store-puffs_applefop.png",
      "allergens":false,
      "product_line":false
   },
   "208":{  
      "id":"208",
      "name":"Banana & Pumpkin",
      "url":"https:\/\/test-t6dnbai-q7lkii7t52xiq.us.magentosite.cloud\/banana-pumpkin",
      "image":"https:\/\/test-t6dnbai-q7lkii7t52xiq.us.magentosite.cloud\/media\/catalog\/product\/cache\/afad95d7734d2fa6d0a8ba78597182b7\/h\/b\/hb-store-puffs_bananafop.png",
      "allergens":false,
      "product_line":false
   },
   "209":{  
      "id":"209",
      "name":"Kale & Spinach",
      "url":"https:\/\/test-t6dnbai-q7lkii7t52xiq.us.magentosite.cloud\/kale-spinach",
      "image":"https:\/\/test-t6dnbai-q7lkii7t52xiq.us.magentosite.cloud\/static\/version1533705851\/frontend\/Madwell\/HappyFamily\/en_US\/Magento_Catalog\/images\/product\/placeholder\/image.jpg",
      "allergens":false,
      "product_line":false
   },
   "210":{  
      "id":"210",
      "name":"Sweet Potato & Carrot",
      "url":"https:\/\/test-t6dnbai-q7lkii7t52xiq.us.magentosite.cloud\/sweet-potato-carrot",
      "image":"https:\/\/test-t6dnbai-q7lkii7t52xiq.us.magentosite.cloud\/media\/catalog\/product\/cache\/afad95d7734d2fa6d0a8ba78597182b7\/h\/b\/hb-store-puffs_swtpotatofop.png",
      "allergens":false,
      "product_line":false
   },
   "211":{  
      "id":"211",
      "name":"Strawberry & Beet",
      "url":"https:\/\/test-t6dnbai-q7lkii7t52xiq.us.magentosite.cloud\/strawberry-beet",
      "image":"https:\/\/test-t6dnbai-q7lkii7t52xiq.us.magentosite.cloud\/media\/catalog\/product\/cache\/afad95d7734d2fa6d0a8ba78597182b7\/h\/b\/hb-store-puffs_strawberryfop.png",
      "allergens":false,
      "product_line":false
   },
   "212":{  
      "id":"212",
      "name":"Purple Carrot & Blueberry",
      "url":"https:\/\/test-t6dnbai-q7lkii7t52xiq.us.magentosite.cloud\/purple-carrot-blueberry",
      "image":"https:\/\/test-t6dnbai-q7lkii7t52xiq.us.magentosite.cloud\/media\/catalog\/product\/cache\/afad95d7734d2fa6d0a8ba78597182b7\/h\/b\/hb-store-puffs_purple-carrotfop.png",
      "allergens":false,
      "product_line":false
   },
   "243":{  
      "id":"243",
      "name":"Subscription Bundle July19",
      "url":"https:\/\/test-t6dnbai-q7lkii7t52xiq.us.magentosite.cloud\/subscription-bundle-july19",
      "image":"https:\/\/test-t6dnbai-q7lkii7t52xiq.us.magentosite.cloud\/media\/catalog\/product\/cache\/afad95d7734d2fa6d0a8ba78597182b7\/1\/e\/1e97xa1z_400x400.png",
      "allergens":false,
      "product_line":false
   }
}