<?xml version="1.0" encoding="UTF-8"?>
<svg width="1153px" height="33px" viewBox="0 0 1153 33" version="1.1" xmlns="http://www.w3.org/2000/svg" xmlns:xlink="http://www.w3.org/1999/xlink">
    <!-- Generator: Sketch 54.1 (76490) - https://sketchapp.com -->
    <title>Shape</title>
    <desc>Created with Sketch.</desc>
    <g id="Picky-Eating-Mob-V3/-Desk-V3" stroke="none" stroke-width="1" fill="none" fill-rule="evenodd">
        <g id="Artboard" transform="translate(0.000000, -564.000000)" fill="#FCF8F2" fill-rule="nonzero">
            <g id="border-beige-bottom" transform="translate(-86.000000, 564.000000)">
                <path d="M1237.45023,9.78801843 C1237.36866,9.70645161 1237.5318,6.19907834 1237.45023,6.19907834 C1237.5318,11.0115207 1237.69493,23.8990783 1237.7765,28.7115207 C1237.7765,28.7115207 1237.5318,13.9479263 1237.45023,9.46175115 C1237.45023,7.50414747 1237.45023,8.15668203 1237.45023,6.19907834 L1226.60184,5.30184332 L1171.05484,5.05714286 C1147.56359,3.34423963 1124.15392,0.897235023 1100.58111,0.815668203 C1084.43088,0.815668203 1068.28065,0.815668203 1052.04885,0.815668203 C1044.38157,0.815668203 1036.79585,0.978801843 1029.12857,0.815668203 C1024.31613,0.734101382 1010.6129,3.18110599 1006.6977,1.54976959 C1003.02719,1.22124533e-15 997.806912,1.30506912 995.115207,3.50737327 C993.891705,2.85483871 992.586636,2.44700461 991.4447,2.28387097 C989.242396,1.95760369 987.121659,1.38663594 984.919355,0.978801843 C982.717051,0.570967742 979.943779,0.815668203 977.904608,1.54976959 C976.517972,2.03917051 974.315668,3.18110599 973.7447,4.8124424 C973.663134,5.05714286 973.663134,5.30184332 973.581567,5.54654378 C967.300922,5.79124424 966.32212,6.0359447 967.382488,6.19907834 L773.824424,6.19907834 C770.561751,5.95437788 766.157143,5.79124424 760.529032,5.54654378 C759.387097,5.79124424 757.75576,5.95437788 755.553456,6.19907834 L715.259447,6.19907834 C699.109217,4.48617512 682.551152,3.34423963 666.645622,3.42580645 C645.193548,3.50737327 623.823041,4.8124424 602.289401,4.8124424 C592.175115,4.8124424 581.897696,3.99677419 571.864977,4.64930876 C566.236866,4.97557604 560.771889,5.6281106 555.306912,6.28064516 L544.295392,6.28064516 C542.990323,4.8124424 540.706452,3.83364055 538.830415,3.75207373 C520.47788,2.36543779 502.288479,3.09953917 484.017512,2.20230415 C480.183871,2.03917051 477.6553,3.18110599 476.513364,4.89400922 C475.860829,4.89400922 475.208295,4.8124424 474.637327,4.8124424 L476.10553,5.54654378 C476.023963,5.79124424 475.860829,6.0359447 475.860829,6.28064516 L436.219355,6.28064516 L450.004147,4.97557604 C445.681106,5.30184332 437.687558,5.79124424 428.14424,6.28064516 L320.557604,6.28064516 C315.826728,5.87281106 309.709217,5.79124424 298.860829,6.28064516 L281.731797,6.28064516 C281.65023,6.28064516 281.487097,6.19907834 281.40553,6.19907834 C281.242396,6.19907834 280.997696,6.28064516 280.752995,6.28064516 L243.966359,6.28064516 C243.558525,6.36221198 243.150691,6.52534562 242.742857,6.60691244 C235.972811,7.91198157 228.713364,7.34101382 221.861751,7.17788018 C216.641475,7.09631336 211.502765,6.8516129 206.282488,6.28064516 L205.22212,6.28064516 C202.204147,6.36221198 199.267742,6.36221198 196.24977,6.28064516 L183.770046,6.28064516 C178.631336,6.60691244 173.574194,6.8516129 168.27235,6.19907834 C166.151613,5.95437788 164.112442,5.6281106 161.991705,5.2202765 C150.001382,5.6281106 137.603226,6.0359447 125.776037,5.95437788 C122.921198,6.0359447 120.474194,6.11751152 118.190323,6.28064516 L91.3548387,6.28064516 C86.6239631,7.34101382 81.8115207,9.70645161 76.9175115,9.54331797 C72.8391705,9.38018433 69.0870968,7.66728111 65.2534562,6.28064516 L46.737788,6.28064516 C49.2663594,5.95437788 51.7133641,5.6281106 53.5078341,5.38341014 C50.816129,5.70967742 48.2875576,6.0359447 45.840553,6.28064516 L22.7571429,6.28064516 C26.6723502,6.0359447 30.0165899,5.79124424 32.4635945,5.30184332 C24.3884793,5.79124424 14.8451613,6.0359447 4.97557604,6.28064516 L0.815668203,6.19907834 L0.815668203,23.164977 C3.91520737,23.2465438 7.58571429,23.3281106 6.77004608,23.8175115 C10.1958525,23.8990783 13.4585253,23.8990783 16.4764977,23.8990783 C13.2138249,23.8990783 10.440553,23.4096774 6.68847926,23.3281106 C7.42258065,22.8387097 3.75207373,23.2465438 0.815668203,23.164977 C0.897235023,24.959447 -0.163133641,26.8354839 0.489400922,28.7115207 L15.6608295,28.6299539 C19.1682028,28.7115207 22.675576,28.7115207 26.1013825,28.7115207 C26.3460829,28.7115207 26.5907834,28.7930876 26.7539171,28.8746544 L27.3248848,29.1193548 C27.5695853,29.2009217 27.8142857,29.2824885 28.0589862,29.2824885 L56.9336406,28.6299539 L67.5373272,28.6299539 C67.618894,28.6299539 67.618894,28.6299539 67.7004608,28.6299539 C68.1082949,28.6299539 68.516129,28.7115207 69.0870968,28.7115207 L68.8423963,28.6299539 L115.090783,28.6299539 C109.707373,29.037788 103.508295,29.4456221 100.653456,29.7718894 C121.371429,29.037788 124.1447,30.0981567 142.334101,28.7115207 C142.415668,28.7115207 142.415668,28.7115207 142.497235,28.7115207 C143.639171,28.7115207 144.781106,28.7930876 145.923041,28.7930876 C146.004608,28.7930876 146.004608,28.7930876 146.086175,28.7930876 L165.009677,30.8322581 L165.254378,30.8322581 L212.807834,29.3640553 C212.889401,29.3640553 212.889401,29.3640553 212.970968,29.3640553 C231.323502,30.6691244 249.59447,32.5451613 268.028571,32.6267281 L305.957143,32.6267281 C311.911521,32.6267281 317.947465,32.5451613 323.901843,32.6267281 C327.653917,32.7082949 338.420737,30.8322581 341.43871,32.0557604 C344.048848,33.116129 347.637788,32.3820276 349.840092,30.9953917 C350.247926,30.7506912 350.737327,30.6691244 351.226728,30.8322581 C351.960829,31.1585253 352.694931,31.321659 353.347465,31.4032258 C355.060369,31.6479263 356.773272,32.1373272 358.486175,32.4635945 C360.199078,32.7898618 362.319816,32.6267281 364.032719,31.9741935 C365.093088,31.5663594 366.887558,30.6691244 367.295392,29.4456221 C367.376959,29.2009217 367.376959,29.037788 367.376959,28.8746544 C369.823963,28.7930876 371.210599,28.7115207 371.9447,28.6299539 L374.228571,28.4668203 L523.658986,28.4668203 C526.187558,28.6299539 529.531797,28.7930876 533.854839,28.9562212 L534.181106,28.9562212 C534.996774,28.7930876 536.301843,28.6299539 537.851613,28.4668203 C537.93318,28.4668203 537.93318,28.4668203 538.014747,28.4668203 L569.417972,28.4668203 C569.499539,28.4668203 569.499539,28.4668203 569.581106,28.4668203 C582.223963,29.7718894 595.111521,30.6691244 607.509677,30.5875576 C624.312442,30.5059908 641.033641,29.5271889 657.836406,29.5271889 C665.748387,29.5271889 673.823502,30.0981567 681.653917,29.6903226 C686.058525,29.4456221 690.3,28.9562212 694.541475,28.4668203 C694.623041,28.4668203 694.623041,28.4668203 694.704608,28.4668203 L702.61659,28.4668203 C702.942857,28.4668203 703.350691,28.5483871 703.595392,28.7930876 C704.65576,29.7718894 706.20553,30.3428571 707.510599,30.424424 C721.866359,31.4847926 736.058986,30.9138249 750.33318,31.5663594 C752.943318,31.6479263 754.737788,30.9953917 755.798157,30.0165899 C756.124424,29.6903226 756.532258,29.5271889 756.940092,29.6087558 L757.674194,29.6087558 L756.532258,29.037788 C756.613825,28.8746544 756.695392,28.6299539 756.776959,28.4668203 L787.77235,28.4668203 L777.00553,29.4456221 C780.34977,29.2009217 786.630415,28.8746544 794.052995,28.4668203 L875.538249,28.4668203 C875.619816,28.4668203 875.619816,28.4668203 875.701382,28.4668203 C884.184332,27.4880184 892.667281,27.9774194 901.231797,28.140553 C910.775115,28.3036866 920.481567,26.2645161 929.943318,27.4064516 C932.064055,27.6511521 934.184793,28.0589862 936.30553,28.4668203 L899.926728,28.3036866 L960.041475,29.1193548 C974.968203,31.2400922 1004.57696,28.5483871 1030.43364,28.7115207 C1032.63594,28.6299539 1034.59355,28.5483871 1036.30645,28.4668203 L1088.91705,28.4668203 C1094.13733,27.9774194 1099.43917,27.8142857 1104.74101,28.4668203 L1111.02166,28.4668203 C1109.71659,28.5483871 1108.49309,28.6299539 1107.35115,28.7115207 C1108.16682,28.7930876 1108.98249,28.7930876 1109.79816,28.8746544 C1112.08203,28.7930876 1114.52903,28.7115207 1116.97604,28.6299539 C1117.22074,28.6299539 1117.38387,28.5483871 1117.547,28.4668203 C1117.62857,28.3852535 1117.71014,28.3852535 1117.87327,28.3852535 C1125.05115,27.8142857 1131.8212,26.1013825 1139.08065,25.9382488 C1144.87189,25.7751152 1150.7447,26.5907834 1156.45438,27.4880184 L1156.69908,27.4880184 C1156.78065,27.4880184 1156.78065,27.4880184 1156.86221,27.5695853 C1158.33041,27.8142857 1159.71705,27.9774194 1161.18525,28.2221198 C1161.67465,28.3036866 1164.52949,28.8746544 1166.9765,29.3640553 L1168.11843,29.3640553 C1172.03364,29.2824885 1175.94885,28.2221198 1179.78249,27.5695853 C1183.28986,26.9170507 1186.71567,26.9170507 1190.14147,27.1617512 C1190.22304,27.1617512 1190.22304,27.1617512 1190.30461,27.1617512 C1194.21982,26.9170507 1198.13502,27.4064516 1202.05023,26.6723502 C1202.94747,26.5092166 1203.8447,26.2645161 1204.74194,26.0198157 C1206.45484,25.6119816 1208.24931,25.1225806 1210.04378,24.8778802 C1217.38479,24.5516129 1224.15484,24.959447 1230.84332,24.3069124 C1230.76175,24.1437788 1230.76175,24.062212 1230.68018,23.9806452 C1230.76175,23.9806452 1230.92488,23.9806452 1231.00645,23.9806452 C1231.16959,24.1437788 1231.33272,24.3069124 1231.41429,24.4700461 C1224.72581,25.0410138 1217.95576,24.6331797 1211.26728,25.3672811 C1209.47281,25.5304147 1207.75991,26.0198157 1205.96544,26.5092166 C1207.27051,26.5092166 1208.57558,26.5907834 1209.88065,26.5907834 C1212.40922,26.6723502 1214.93779,26.8354839 1217.46636,26.2645161 C1223.09447,26.2645161 1231.74055,28.6299539 1237.45023,28.7115207 C1239.2447,28.7930876 1237.5318,23.8990783 1237.45023,21.6967742 C1237.45023,17.2921659 1238.18433,13.9479263 1237.45023,9.78801843 Z M483.772811,24.959447 L482.223041,24.5516129 C482.304608,24.5516129 482.304608,24.5516129 482.386175,24.5516129 L483.935945,24.959447 C483.854378,24.959447 483.854378,24.959447 483.772811,24.959447 Z M986.142857,29.4456221 L985.490323,29.4456221 L986.387558,29.4456221 L986.142857,29.4456221 Z" id="Shape"></path>
            </g>
        </g>
    </g>
</svg>