<svg xmlns="http://www.w3.org/2000/svg" xmlns:xlink="http://www.w3.org/1999/xlink" width="12" height="12" viewBox="0 0 12 12" fill="#009ed2">
  <rect width="100%" height="100%" fill="#FCF8F2">
  </rect>
    <defs fill="#009ed2">
    <path id="nwrva" d="M385.5 27.36v11.39" fill="#009ed2"/>
    <path fill="#009ed2" id="nwrvb" d="M379.03 33.5h11.92"/>
    </defs>
    <g>
      <g transform="translate(-379 -27)">
      <use fill="#009ed2" fill-opacity="0" stroke="#009ed2" stroke-linecap="round" stroke-linejoin="round" stroke-miterlimit="50" stroke-width="3" xlink:href="#nwrva"/>
    </g>
    <g transform="translate(-379 -27)">
      <use fill="#009ed2" fill-opacity="0" stroke="#009ed2" stroke-linecap="round" stroke-linejoin="round" stroke-miterlimit="50" stroke-width="3" xlink:href="#nwrvb"/>
    </g>
    </g>
</svg>